%YAML 1.1
%TAG !u! tag:unity3d.com,2011:
--- !u!114 &11400000
MonoBehaviour:
  m_ObjectHideFlags: 0
  m_CorrespondingSourceObject: {fileID: 0}
  m_PrefabInstance: {fileID: 0}
  m_PrefabAsset: {fileID: 0}
  m_GameObject: {fileID: 0}
  m_Enabled: 1
  m_EditorHideFlags: 0
  m_Script: {fileID: 11500000, guid: d27a80fde09e04c449015375944e23d8, type: 3}
  m_Name: AK-12
  m_EditorClassIdentifier: 
  nameItem: AK-12
  description: Russian weapon
  type: 0
  sprite: {fileID: 21300000, guid: 145e7eb4d131f304cbe0ad0c4b33b43a, type: 3}
  go: {fileID: 5456195109246598445, guid: 4b18eb38b843e9c4db018f74ec5ca54f, type: 3}
  maxCount: 1
  countSpawn:
    min: 1
    max: 1
    infinity: 0
  weigth: 1
  combine: 0
  isTrowable: 0
  visibleStatus: 1
  typeWeapon: 1
  typeMeleeWeapon: 0
  animatorController: {fileID: 22100000, guid: 582b787b2e297fc45b002718a6aa2213, type: 2}
  attackType:
    min: 0
    max: 0
    infinity: 0
  weaponSetting:
    weaponAIMMultiply: 3
    damage: 10
    clipSize: 30
    typeAmmo: 0
    speedAnimationShoot: 2
    speedBullet: 200
    countBulletOnShot: 1
    cooldownBulletShot: 0.2
    scatterOffsetOnShoot: 1
    maxScatterOffsetOnShoot: 10
