%YAML 1.1
%TAG !u! tag:unity3d.com,2011:
--- !u!114 &11400000
MonoBehaviour:
  m_ObjectHideFlags: 0
  m_CorrespondingSourceObject: {fileID: 0}
  m_PrefabInstance: {fileID: 0}
  m_PrefabAsset: {fileID: 0}
  m_GameObject: {fileID: 0}
  m_Enabled: 1
  m_EditorHideFlags: 0
  m_Script: {fileID: 11500000, guid: d27a80fde09e04c449015375944e23d8, type: 3}
  m_Name: Shootgun
  m_EditorClassIdentifier: 
  nameItem: Shootgun
  description: Shootgun
  type: 0
  sprite: {fileID: 21300000, guid: c04603058f661094ab33f8a1f9368dd2, type: 3}
  go: {fileID: 1909637141867642724, guid: 05181e191ac490841be00e794b987d75, type: 3}
  maxCount: 1
  countSpawn:
    min: 1
    max: 1
    infinity: 0
  weigth: 1
  combine: 0
  isTrowable: 0
  visibleStatus: 1
  typeWeapon: 1
  typeMeleeWeapon: 0
  animatorController: {fileID: 22100000, guid: 582b787b2e297fc45b002718a6aa2213, type: 2}
  attackType:
    min: 3
    max: 3
    infinity: 0
  weaponSetting:
    weaponAIMMultiply: 2
    damage: 1
    clipSize: 12
    typeAmmo: 3
    speedAnimationShoot: 1
    speedBullet: 100
    countBulletOnShot: 5
    cooldownBulletShot: 1
    scatterOffsetOnShoot: 20
    maxScatterOffsetOnShoot: 20
    scopeAIM: 0
    aimFow: 30
