%YAML 1.1
%TAG !u! tag:unity3d.com,2011:
--- !u!114 &11400000
MonoBehaviour:
  m_ObjectHideFlags: 0
  m_CorrespondingSourceObject: {fileID: 0}
  m_PrefabInstance: {fileID: 0}
  m_PrefabAsset: {fileID: 0}
  m_GameObject: {fileID: 0}
  m_Enabled: 1
  m_EditorHideFlags: 0
  m_Script: {fileID: 11500000, guid: d27a80fde09e04c449015375944e23d8, type: 3}
  m_Name: "\u0421rossbow"
  m_EditorClassIdentifier: 
  nameItem: "\u0421rossbow"
  description: "\u0421rossbow"
  type: 0
  sprite: {fileID: 21300000, guid: 2b0f4240af2b3fb41b3d8e2b193c9b4c, type: 3}
  go: {fileID: 7838700548043674496, guid: 68e4009766c63c54384017998eeb07fc, type: 3}
  maxCount: 1
  countSpawn:
    min: 1
    max: 1
    infinity: 0
  weigth: 1
  combine: 0
  isTrowable: 0
  visibleStatus: 1
  typeWeapon: 1
  typeMeleeWeapon: 0
  animatorController: {fileID: 22100000, guid: 582b787b2e297fc45b002718a6aa2213, type: 2}
  attackType:
    min: 0
    max: 0
    infinity: 0
  weaponSetting:
    weaponAIMMultiply: 1
    damage: 10
    clipSize: 1
    typeAmmo: 4
    speedAnimationShoot: 1
    speedBullet: 100
    countBulletOnShot: 1
    cooldownBulletShot: 0.2
    scatterOffsetOnShoot: 0.1
    maxScatterOffsetOnShoot: 1
    scopeAIM: 0
    aimFow: 30
