%YAML 1.1
%TAG !u! tag:unity3d.com,2011:
--- !u!114 &11400000
MonoBehaviour:
  m_ObjectHideFlags: 0
  m_CorrespondingSourceObject: {fileID: 0}
  m_PrefabInstance: {fileID: 0}
  m_PrefabAsset: {fileID: 0}
  m_GameObject: {fileID: 0}
  m_Enabled: 1
  m_EditorHideFlags: 0
  m_Script: {fileID: 11500000, guid: 072199822c6c3134b8b700710476ab2a, type: 3}
  m_Name: Rope
  m_EditorClassIdentifier: 
  nameItem: Rope
  description: 
  type: 4
  sprite: {fileID: 21300000, guid: f39b005f5710db24f81acabea78f5f55, type: 3}
  go: {fileID: 0}
  maxCount: 1000
  countSpawn:
    min: 1
    max: 1
    infinity: 0
  weigth: 0.1
  combine: 1
