%YAML 1.1
%TAG !u! tag:unity3d.com,2011:
--- !u!319 &31900000
AvatarMask:
  m_ObjectHideFlags: 0
  m_CorrespondingSourceObject: {fileID: 0}
  m_PrefabInstance: {fileID: 0}
  m_PrefabAsset: {fileID: 0}
  m_Name: AvatarAIM
  m_Mask: 00000000010000000100000000000000000000000000000000000000000000000000000000000000000000000000000000000000
  m_Elements:
  - m_Path: 
    m_Weight: 1
  - m_Path: Bip001
    m_Weight: 1
  - m_Path: Bip001/Bip001 Pelvis
    m_Weight: 1
  - m_Path: Bip001/Bip001 Pelvis/Bip001 L Thigh
    m_Weight: 1
  - m_Path: Bip001/Bip001 Pelvis/Bip001 L Thigh/Bip001 L Calf
    m_Weight: 1
  - m_Path: Bip001/Bip001 Pelvis/Bip001 L Thigh/Bip001 L Calf/Bip001 L Foot
    m_Weight: 1
  - m_Path: Bip001/Bip001 Pelvis/Bip001 L Thigh/Bip001 L Calf/Bip001 L Foot/Bip001
      L Toe0
    m_Weight: 1
  - m_Path: Bip001/Bip001 Pelvis/Bip001 R Thigh
    m_Weight: 1
  - m_Path: Bip001/Bip001 Pelvis/Bip001 R Thigh/Bip001 R Calf
    m_Weight: 1
  - m_Path: Bip001/Bip001 Pelvis/Bip001 R Thigh/Bip001 R Calf/Bip001 R Foot
    m_Weight: 1
  - m_Path: Bip001/Bip001 Pelvis/Bip001 R Thigh/Bip001 R Calf/Bip001 R Foot/Bip001
      R Toe0
    m_Weight: 1
  - m_Path: Bip001/Bip001 Pelvis/Bip001 Spine
    m_Weight: 1
  - m_Path: Bip001/Bip001 Pelvis/Bip001 Spine/Backpack_container
    m_Weight: 1
  - m_Path: Bip001/Bip001 Pelvis/Bip001 Spine/Bip001 L Clavicle
    m_Weight: 1
  - m_Path: Bip001/Bip001 Pelvis/Bip001 Spine/Bip001 L Clavicle/Bip001 L UpperArm
    m_Weight: 1
  - m_Path: Bip001/Bip001 Pelvis/Bip001 Spine/Bip001 L Clavicle/Bip001 L UpperArm/Bip001
      L Forearm
    m_Weight: 1
  - m_Path: Bip001/Bip001 Pelvis/Bip001 Spine/Bip001 L Clavicle/Bip001 L UpperArm/Bip001
      L Forearm/Bip001 L Hand
    m_Weight: 1
  - m_Path: Bip001/Bip001 Pelvis/Bip001 Spine/Bip001 L Clavicle/Bip001 L UpperArm/Bip001
      L Forearm/Bip001 L Hand/WeaponContainer_L
    m_Weight: 1
  - m_Path: Bip001/Bip001 Pelvis/Bip001 Spine/Bip001 Neck
    m_Weight: 1
  - m_Path: Bip001/Bip001 Pelvis/Bip001 Spine/Bip001 Neck/Bip001 Head
    m_Weight: 1
  - m_Path: Bip001/Bip001 Pelvis/Bip001 Spine/Bip001 R Clavicle
    m_Weight: 1
  - m_Path: Bip001/Bip001 Pelvis/Bip001 Spine/Bip001 R Clavicle/Bip001 R UpperArm
    m_Weight: 1
  - m_Path: Bip001/Bip001 Pelvis/Bip001 Spine/Bip001 R Clavicle/Bip001 R UpperArm/Bip001
      R Forearm
    m_Weight: 1
  - m_Path: Bip001/Bip001 Pelvis/Bip001 Spine/Bip001 R Clavicle/Bip001 R UpperArm/Bip001
      R Forearm/Bip001 R Hand
    m_Weight: 1
  - m_Path: Bip001/Bip001 Pelvis/Bip001 Spine/Bip001 R Clavicle/Bip001 R UpperArm/Bip001
      R Forearm/Bip001 R Hand/WeaponContainer
    m_Weight: 1
  - m_Path: Body_A
    m_Weight: 1
  - m_Path: Body_B
    m_Weight: 1
  - m_Path: Body_C
    m_Weight: 1
  - m_Path: Body_D
    m_Weight: 1
  - m_Path: Body_E
    m_Weight: 1
  - m_Path: Body_F
    m_Weight: 1
  - m_Path: Body_G
    m_Weight: 1
  - m_Path: Body_H
    m_Weight: 1
  - m_Path: Body_I
    m_Weight: 1
  - m_Path: Body_J
    m_Weight: 1
  - m_Path: Body_K
    m_Weight: 1
  - m_Path: extra_backpack
    m_Weight: 1
  - m_Path: extra_camelback
    m_Weight: 1
  - m_Path: extra_equip_A
    m_Weight: 1
  - m_Path: extra_equip_B
    m_Weight: 1
  - m_Path: extra_equip_C
    m_Weight: 1
  - m_Path: extra_light_backpack
    m_Weight: 1
  - m_Path: Head_A1
    m_Weight: 1
  - m_Path: Head_A2
    m_Weight: 1
  - m_Path: Head_A3
    m_Weight: 1
  - m_Path: Head_B1
    m_Weight: 1
  - m_Path: Head_B2
    m_Weight: 1
  - m_Path: Head_B3
    m_Weight: 1
  - m_Path: Head_B4
    m_Weight: 1
  - m_Path: Head_B5
    m_Weight: 1
  - m_Path: Head_B6
    m_Weight: 1
  - m_Path: Head_B7
    m_Weight: 1
  - m_Path: Head_C1
    m_Weight: 1
  - m_Path: Head_C2
    m_Weight: 1
  - m_Path: Head_C3
    m_Weight: 1
  - m_Path: Head_C4
    m_Weight: 1
  - m_Path: Head_C5
    m_Weight: 1
  - m_Path: Head_C6
    m_Weight: 1
  - m_Path: Head_C7
    m_Weight: 1
  - m_Path: Head_D1
    m_Weight: 1
  - m_Path: Head_D2
    m_Weight: 1
  - m_Path: Head_D3
    m_Weight: 1
  - m_Path: Head_D4
    m_Weight: 1
  - m_Path: Head_D5
    m_Weight: 1
  - m_Path: Head_E1
    m_Weight: 1
  - m_Path: Head_E2
    m_Weight: 1
  - m_Path: Head_E3
    m_Weight: 1
  - m_Path: Head_E4
    m_Weight: 1
  - m_Path: Head_E5
    m_Weight: 1
  - m_Path: Head_F1
    m_Weight: 1
  - m_Path: Head_F2
    m_Weight: 1
  - m_Path: Head_F3
    m_Weight: 1
  - m_Path: Head_F4
    m_Weight: 1
  - m_Path: Head_G1
    m_Weight: 1
  - m_Path: Head_G2
    m_Weight: 1
  - m_Path: Head_G3
    m_Weight: 1
  - m_Path: Head_G4
    m_Weight: 1
  - m_Path: Head_H1
    m_Weight: 1
  - m_Path: Head_H2
    m_Weight: 1
  - m_Path: Head_I1
    m_Weight: 1
  - m_Path: Head_I2
    m_Weight: 1
  - m_Path: Head_J1
    m_Weight: 1
  - m_Path: Head_J2
    m_Weight: 1
  - m_Path: Head_J3
    m_Weight: 1
  - m_Path: Head_J4
    m_Weight: 1
  - m_Path: Head_K1
    m_Weight: 1
  - m_Path: Head_K2
    m_Weight: 1
  - m_Path: Head_K3
    m_Weight: 1
  - m_Path: Head_K4
    m_Weight: 1
  - m_Path: Head_L1
    m_Weight: 1
  - m_Path: Head_L2
    m_Weight: 1
  - m_Path: Head_L3
    m_Weight: 1
  - m_Path: Head_L4
    m_Weight: 1
  - m_Path: Head_L5
    m_Weight: 1
  - m_Path: Legs_A
    m_Weight: 1
  - m_Path: Legs_B
    m_Weight: 1
  - m_Path: Legs_C
    m_Weight: 1
